[
  {
    "id": 1,
    "title": "product1",
    "description": "product1 description",
    "imgSrc": "img/1.jpg"
  },
  {
    "id": 2,
    "title": "product2",
    "description": "product2 description",
    "imgSrc": "img/2.jpg"
  },
  {
    "id": 3,
    "title": "product3",
    "description": "product3 description",
    "imgSrc": "img/3.jpg"
  },
  {
    "id": 4,
    "title": "product4",
    "description": "product4 description",
    "imgSrc": "img/4.jpg"
  },
  {
    "id": 5,
    "title": "product5",
    "description": "product5 description",
    "imgSrc": "img/5.jpg"
  },
  {
    "id": 6,
    "title": "product6",
    "description": "product6 description",
    "imgSrc": "img/6.jpg"
  }
]
